[{
        "name": "ssh_true",
        "server_listen": "0.0.0.0:8023",
        "local_remote": "192.168.31.251:8022"
    },
    {
        "name": "ssh_pi3",
        "server_listen": "0.0.0.0:8025",
        "local_remote": "192.168.31.220:22"
    },
    {
        "name": "vnc_pi3",
        "server_listen": "0.0.0.0:8026",
        "local_remote": "192.168.31.220:5900"
    },
    {
        "name": "ssh_mac",
        "server_listen": "0.0.0.0:8024",
        "local_remote": "192.168.31.185:22"
    },
    {
        "name": "vnc_mac",
        "server_listen": "0.0.0.0:5900",
        "local_remote": "192.168.31.185:5900"
    },
    {
        "name": "rdp_pc",
        "server_listen": "0.0.0.0:3389",
        "local_remote": "192.168.31.136:3389"
    },
    {
        "name": "router",
        "server_listen": "0.0.0.0:8000",
        "local_remote": "192.168.1.1:80"
    },
    {
        "name": "web",
        "server_listen": "0.0.0.0:80",
        "local_remote": "127.0.0.1:8000"
    }
]